8051/waveform.vcd
$date
     Jun 08, 2022       18:04:25
$end

$version
 SystemC 2.3.3-Accellera --- Mar 30 2022 23:04:16
$end

$timescale
     1 ps
$end

$scope module SystemC $end
$var wire    1  aaaaa  clk_800       $end
$var wire    1  aaaab  clk       $end
$var wire    8  aaaac  port0o [7:0]  $end
$var wire    8  aaaad  port3o [7:0]  $end
$var wire    8  aaaae  port2i [7:0]  $end
$var wire    8  aaaaf  port1i [7:0]  $end
$upscope $end
$enddefinitions  $end

$comment
All initial values are dumped below at time 1e-07 sec = 100000 timescale units.
$end

$dumpvars
1aaaaa
0aaaab
b0 aaaac
b0 aaaad
b1 aaaae
b1 aaaaf
$end

#100375
0aaaaa

#101000
1aaaaa
1aaaab

#101625
0aaaaa

#102250
1aaaaa

#102875
0aaaaa

#103500
1aaaaa

#104125
0aaaaa

#104750
1aaaaa

#105375
0aaaaa

#106000
1aaaaa
0aaaab
b0 aaaaf

#106625
0aaaaa

#107250
1aaaaa

#107875
0aaaaa

#108500
1aaaaa

#109125
0aaaaa

#109750
1aaaaa

#110375
0aaaaa

#111000
1aaaaa
1aaaab

#111625
0aaaaa

#112250
1aaaaa

#112875
0aaaaa

#113500
1aaaaa

#114125
0aaaaa

#114750
1aaaaa

#115375
0aaaaa

#116000
1aaaaa
0aaaab
b0 aaaae

#116625
0aaaaa

#117250
1aaaaa

#117875
0aaaaa

#118500
1aaaaa

#119125
0aaaaa

#119750
1aaaaa

#120375
0aaaaa

#121000
1aaaaa
1aaaab

#121625
0aaaaa

#122250
1aaaaa

#122875
0aaaaa

#123500
1aaaaa

#124125
0aaaaa

#124750
1aaaaa

#125375
0aaaaa

#126000
1aaaaa
0aaaab
b1 aaaae
b1 aaaaf

#126625
0aaaaa

#127250
1aaaaa

#127875
0aaaaa

#128500
1aaaaa

#129125
0aaaaa

#129750
1aaaaa

#130375
0aaaaa

#131000
1aaaaa
1aaaab

#131625
0aaaaa

#132250
1aaaaa

#132875
0aaaaa

#133500
1aaaaa

#134125
0aaaaa

#134750
1aaaaa

#135375
0aaaaa

#136000
1aaaaa
0aaaab
b0 aaaaf

#136625
0aaaaa

#137250
1aaaaa

#137875
0aaaaa

#138500
1aaaaa

#139125
0aaaaa

#139750
1aaaaa

#140375
0aaaaa

#141000
1aaaaa
1aaaab

#141625
0aaaaa

#142250
1aaaaa

#142875
0aaaaa

#143500
1aaaaa

#144125
0aaaaa

#144750
1aaaaa

#145375
0aaaaa

#146000
1aaaaa
0aaaab
b1 aaaaf

#146625
0aaaaa

#147250
1aaaaa

#147875
0aaaaa

#148500
1aaaaa

#149125
0aaaaa

#149750
1aaaaa

#150375
0aaaaa

#151000
1aaaaa
1aaaab

#151625
0aaaaa

#152250
1aaaaa

#152875
0aaaaa

#153500
1aaaaa

#154125
0aaaaa

#154750
1aaaaa

#155375
0aaaaa

#156000
1aaaaa
0aaaab

#156625
0aaaaa

#157250
1aaaaa

#157875
0aaaaa

#158500
1aaaaa

#159125
0aaaaa

#159750
1aaaaa

#160375
0aaaaa

#161000
1aaaaa
1aaaab

#161625
0aaaaa

#162250
1aaaaa

#162875
0aaaaa

#163500
1aaaaa

#164125
0aaaaa

#164750
1aaaaa

#165375
0aaaaa

#166000
1aaaaa
0aaaab
b0 aaaaf

#166625
0aaaaa

#167250
1aaaaa

#167875
0aaaaa

#168500
1aaaaa

#169125
0aaaaa

#169750
1aaaaa

#170375
0aaaaa

#171000
1aaaaa
1aaaab

#171625
0aaaaa

#172250
1aaaaa

#172875
0aaaaa

#173500
1aaaaa

#174125
0aaaaa

#174750
1aaaaa

#175375
0aaaaa

#176000
1aaaaa
0aaaab
b0 aaaae

#176625
0aaaaa

#177250
1aaaaa

#177875
0aaaaa

#178500
1aaaaa

#179125
0aaaaa

#179750
1aaaaa

#180375
0aaaaa

#181000
1aaaaa
1aaaab

#181625
0aaaaa

#182250
1aaaaa

#182875
0aaaaa

#183500
1aaaaa

#184125
0aaaaa

#184750
1aaaaa

#185375
0aaaaa

#186000
1aaaaa
0aaaab
b1 aaaae
b1 aaaaf

#186625
0aaaaa

#187250
1aaaaa

#187875
0aaaaa

#188500
1aaaaa

#189125
0aaaaa

#189750
1aaaaa

#190375
0aaaaa

#191000
1aaaaa
1aaaab

#191625
0aaaaa

#192250
1aaaaa

#192875
0aaaaa

#193500
1aaaaa

#194125
0aaaaa

#194750
1aaaaa

#195375
0aaaaa

#196000
1aaaaa
0aaaab
b0 aaaaf

#196625
0aaaaa

#197250
1aaaaa

#197875
0aaaaa

#198500
1aaaaa

#199125
0aaaaa

#199750
1aaaaa

#200375
0aaaaa

#201000
1aaaaa
1aaaab

#201625
0aaaaa

#202250
1aaaaa

#202875
0aaaaa

#203500
1aaaaa

#204125
0aaaaa

#204750
1aaaaa

#205375
0aaaaa

#206000
1aaaaa
0aaaab
b1 aaaaf

#206625
0aaaaa

#207250
1aaaaa

#207875
0aaaaa

#208500
1aaaaa

#209125
0aaaaa

#209750
1aaaaa

#210375
0aaaaa

#211000
1aaaaa
1aaaab

#211625
0aaaaa

#212250
1aaaaa

#212875
0aaaaa

#213500
1aaaaa

#214125
0aaaaa

#214750
1aaaaa

#215375
0aaaaa

#216000
1aaaaa
0aaaab

#216625
0aaaaa

#217250
1aaaaa

#217875
0aaaaa

#218500
1aaaaa

#219125
0aaaaa

#219750
1aaaaa

#220375
0aaaaa

#221000
1aaaaa
1aaaab

#221625
0aaaaa

#222250
1aaaaa

#222875
0aaaaa

#223500
1aaaaa

#224125
0aaaaa

#224750
1aaaaa

#225375
0aaaaa

#226000
1aaaaa
0aaaab
b0 aaaaf

#226625
0aaaaa

#227250
1aaaaa

#227875
0aaaaa

#228500
1aaaaa

#229125
0aaaaa

#229750
1aaaaa

#230375
0aaaaa

#231000
1aaaaa
1aaaab

#231625
0aaaaa

#232250
1aaaaa

#232875
0aaaaa

#233500
1aaaaa

#234125
0aaaaa

#234750
1aaaaa

#235375
0aaaaa

#236000
1aaaaa
0aaaab
b0 aaaae

#236625
0aaaaa

#237250
1aaaaa

#237875
0aaaaa

#238500
1aaaaa

#239125
0aaaaa

#239750
1aaaaa

#240375
0aaaaa

#241000
1aaaaa
1aaaab

#241625
0aaaaa

#242250
1aaaaa

#242875
0aaaaa

#243500
1aaaaa

#244125
0aaaaa

#244750
1aaaaa

#245375
0aaaaa

#246000
1aaaaa
0aaaab
b1 aaaae
b1 aaaaf

#246625
0aaaaa

#247250
1aaaaa

#247875
0aaaaa

#248500
1aaaaa

#249125
0aaaaa

#249750
1aaaaa

#250375
0aaaaa

#251000
1aaaaa
1aaaab

#251625
0aaaaa

#252250
1aaaaa

#252875
0aaaaa

#253500
1aaaaa

#254125
0aaaaa

#254750
1aaaaa

#255375
0aaaaa

#256000
1aaaaa
0aaaab
b0 aaaaf

#256625
0aaaaa

#257250
1aaaaa

#257875
0aaaaa

#258500
1aaaaa

#259125
0aaaaa

#259750
1aaaaa

#260375
0aaaaa

#261000
1aaaaa
1aaaab
b1 aaaad

#261625
0aaaaa

#262250
1aaaaa

#262875
0aaaaa

#263500
1aaaaa

#264125
0aaaaa

#264750
1aaaaa

#265375
0aaaaa

#266000
1aaaaa
0aaaab
b1 aaaaf

#266625
0aaaaa

#267250
1aaaaa

#267875
0aaaaa

#268500
1aaaaa

#269125
0aaaaa

#269750
1aaaaa

#270375
0aaaaa

#271000
1aaaaa
1aaaab

#271625
0aaaaa

#272250
1aaaaa

#272875
0aaaaa

#273500
1aaaaa

#274125
0aaaaa

#274750
1aaaaa

#275375
0aaaaa

#276000
1aaaaa
0aaaab

#276625
0aaaaa

#277250
1aaaaa

#277875
0aaaaa

#278500
1aaaaa

#279125
0aaaaa

#279750
1aaaaa

#280375
0aaaaa

#281000
1aaaaa
1aaaab

#281625
0aaaaa

#282250
1aaaaa

#282875
0aaaaa

#283500
1aaaaa

#284125
0aaaaa

#284750
1aaaaa

#285375
0aaaaa

#286000
1aaaaa
0aaaab
b0 aaaaf

#286625
0aaaaa

#287250
1aaaaa

#287875
0aaaaa

#288500
1aaaaa

#289125
0aaaaa

#289750
1aaaaa

#290375
0aaaaa

#291000
1aaaaa
1aaaab

#291625
0aaaaa

#292250
1aaaaa

#292875
0aaaaa

#293500
1aaaaa

#294125
0aaaaa

#294750
1aaaaa

#295375
0aaaaa

#296000
1aaaaa
0aaaab
b0 aaaae

#296625
0aaaaa

#297250
1aaaaa

#297875
0aaaaa

#298500
1aaaaa

#299125
0aaaaa

#299750
1aaaaa

#300375
0aaaaa

#301000
1aaaaa
1aaaab

#301625
0aaaaa

#302250
1aaaaa
b0 aaaad

#302875
0aaaaa

#303500
1aaaaa

#304125
0aaaaa

#304750
1aaaaa

#305375
0aaaaa

#306000
1aaaaa
0aaaab
b1 aaaae
b1 aaaaf

#306625
0aaaaa

#307250
1aaaaa

#307875
0aaaaa

#308500
1aaaaa

#309125
0aaaaa

#309750
1aaaaa

#310375
0aaaaa

#311000
1aaaaa
1aaaab

#311625
0aaaaa

#312250
1aaaaa

#312875
0aaaaa

#313500
1aaaaa

#314125
0aaaaa

#314750
1aaaaa
b1 aaaad

#315375
0aaaaa

#316000
1aaaaa
0aaaab
b0 aaaaf

#316625
0aaaaa

#317250
1aaaaa
b1 aaaac

#317875
0aaaaa

#318500
1aaaaa

#319125
0aaaaa

#319750
1aaaaa

#320375
0aaaaa

#321000
1aaaaa
1aaaab

#321625
0aaaaa

#322250
1aaaaa

#322875
0aaaaa

#323500
1aaaaa

#324125
0aaaaa

#324750
1aaaaa

#325375
0aaaaa

#326000
1aaaaa
0aaaab
b1 aaaaf

#326625
0aaaaa

#327250
1aaaaa

#327875
0aaaaa

#328500
1aaaaa

#329125
0aaaaa

#329750
1aaaaa

#330375
0aaaaa

#331000
1aaaaa
1aaaab

#331625
0aaaaa

#332250
1aaaaa

#332875
0aaaaa

#333500
1aaaaa

#334125
0aaaaa

#334750
1aaaaa

#335375
0aaaaa

#336000
1aaaaa
0aaaab

#336625
0aaaaa

#337250
1aaaaa

#337875
0aaaaa

#338500
1aaaaa

#339125
0aaaaa

#339750
1aaaaa

#340375
0aaaaa

#341000
1aaaaa
1aaaab

#341625
0aaaaa

#342250
1aaaaa

#342875
0aaaaa

#343500
1aaaaa

#344125
0aaaaa

#344750
1aaaaa

#345375
0aaaaa

#346000
1aaaaa
0aaaab
b0 aaaaf

#346625
0aaaaa

#347250
1aaaaa

#347875
0aaaaa

#348500
1aaaaa

#349125
0aaaaa

#349750
1aaaaa

#350375
0aaaaa

#351000
1aaaaa
1aaaab

#351625
0aaaaa

#352250
1aaaaa

#352875
0aaaaa

#353500
1aaaaa

#354125
0aaaaa

#354750
1aaaaa

#355375
0aaaaa

#356000
1aaaaa
0aaaab
b0 aaaae

#356625
0aaaaa

#357250
1aaaaa

#357875
0aaaaa

#358500
1aaaaa

#359125
0aaaaa

#359750
1aaaaa
b0 aaaad

#360375
0aaaaa

#361000
1aaaaa
1aaaab

#361625
0aaaaa

#362250
1aaaaa

#362875
0aaaaa

#363500
1aaaaa

#364125
0aaaaa

#364750
1aaaaa

#365375
0aaaaa

#366000
1aaaaa
0aaaab
b1 aaaae
b1 aaaaf

#366625
0aaaaa

#367250
1aaaaa

#367875
0aaaaa

#368500
1aaaaa

#369125
0aaaaa

#369750
1aaaaa

#370375
0aaaaa

#371000
1aaaaa
1aaaab

#371625
0aaaaa

#372250
1aaaaa
b1 aaaad

#372875
0aaaaa

#373500
1aaaaa

#374125
0aaaaa

#374750
1aaaaa
b10 aaaac

#375375
0aaaaa

#376000
1aaaaa
0aaaab

#376625
0aaaaa

#377250
1aaaaa

#377875
0aaaaa

#378500
1aaaaa

#379125
0aaaaa

#379750
1aaaaa

#380375
0aaaaa

#381000
1aaaaa
1aaaab

#381625
0aaaaa

#382250
1aaaaa

#382875
0aaaaa

#383500
1aaaaa

#384125
0aaaaa

#384750
1aaaaa

#385375
0aaaaa

#386000
1aaaaa
0aaaab
b0 aaaaf

#386625
0aaaaa

#387250
1aaaaa

#387875
0aaaaa

#388500
1aaaaa

#389125
0aaaaa

#389750
1aaaaa

#390375
0aaaaa

#391000
1aaaaa
1aaaab

#391625
0aaaaa

#392250
1aaaaa

#392875
0aaaaa

#393500
1aaaaa

#394125
0aaaaa

#394750
1aaaaa

#395375
0aaaaa

#396000
1aaaaa
0aaaab
b1 aaaaf

#396625
0aaaaa

#397250
1aaaaa

#397875
0aaaaa

#398500
1aaaaa

#399125
0aaaaa

#399750
1aaaaa

#400375
0aaaaa

#401000
1aaaaa
1aaaab

#401625
0aaaaa

#402250
1aaaaa

#402875
0aaaaa

#403500
1aaaaa

#404125
0aaaaa

#404750
1aaaaa

#405375
0aaaaa

#406000
1aaaaa
0aaaab
b0 aaaaf

#406625
0aaaaa

#407250
1aaaaa

#407875
0aaaaa

#408500
1aaaaa

#409125
0aaaaa

#409750
1aaaaa

#410375
0aaaaa

#411000
1aaaaa
1aaaab

#411625
0aaaaa

#412250
1aaaaa

#412875
0aaaaa

#413500
1aaaaa

#414125
0aaaaa

#414750
1aaaaa

#415375
0aaaaa

#416000
1aaaaa
0aaaab
b1 aaaaf

#416625
0aaaaa

#417250
1aaaaa

#417875
0aaaaa

#418500
1aaaaa

#419125
0aaaaa

#419750
1aaaaa

#420375
0aaaaa

#421000
1aaaaa
1aaaab

#421625
0aaaaa

#422250
1aaaaa

#422875
0aaaaa

#423500
1aaaaa

#424125
0aaaaa

#424750
1aaaaa

#425375
0aaaaa

#426000
1aaaaa
0aaaab
b0 aaaaf

#426625
0aaaaa

#427250
1aaaaa

#427875
0aaaaa

#428500
1aaaaa

#429125
0aaaaa

#429750
1aaaaa

#430375
0aaaaa

#431000
1aaaaa
1aaaab

#431625
0aaaaa

#432250
1aaaaa

#432875
0aaaaa

#433500
1aaaaa

#434125
0aaaaa

#434750
1aaaaa

#435375
0aaaaa

#436000
1aaaaa
0aaaab
b1 aaaaf

#436625
0aaaaa

#437250
1aaaaa

#437875
0aaaaa

#438500
1aaaaa

#439125
0aaaaa

#439750
1aaaaa

#440375
0aaaaa

#441000
1aaaaa
1aaaab

#441625
0aaaaa

#442250
1aaaaa

#442875
0aaaaa

#443500
1aaaaa

#444125
0aaaaa

#444750
1aaaaa

#445375
0aaaaa

#446000
1aaaaa
0aaaab
b0 aaaaf

#446625
0aaaaa

#447250
1aaaaa

#447875
0aaaaa

#448500
1aaaaa

#449125
0aaaaa

#449750
1aaaaa

#450375
0aaaaa

#451000
1aaaaa
1aaaab

#451625
0aaaaa

#452250
1aaaaa

#452875
0aaaaa

#453500
1aaaaa

#454125
0aaaaa

#454750
1aaaaa

#455375
0aaaaa

#456000
1aaaaa
0aaaab
b0 aaaae

#456625
0aaaaa

#457250
1aaaaa

#457875
0aaaaa

#458500
1aaaaa

#459125
0aaaaa

#459750
1aaaaa

#460375
0aaaaa

#461000
1aaaaa
1aaaab

#461625
0aaaaa

#462250
1aaaaa
b0 aaaad

#462875
0aaaaa

#463500
1aaaaa

#464125
0aaaaa

#464750
1aaaaa

#465375
0aaaaa

#466000
1aaaaa
0aaaab
b1 aaaae
b1 aaaaf

#466625
0aaaaa

#467250
1aaaaa

#467875
0aaaaa

#468500
1aaaaa

#469125
0aaaaa

#469750
1aaaaa

#470375
0aaaaa

#471000
1aaaaa
1aaaab

#471625
0aaaaa

#472250
1aaaaa

#472875
0aaaaa

#473500
1aaaaa

#474125
0aaaaa

#474750
1aaaaa
b1 aaaad

#475375
0aaaaa

#476000
1aaaaa
0aaaab

#476625
0aaaaa

#477250
1aaaaa
b11 aaaac

#477875
0aaaaa

#478500
1aaaaa

#479125
0aaaaa

#479750
1aaaaa

#480375
0aaaaa

#481000
1aaaaa
1aaaab

#481625
0aaaaa

#482250
1aaaaa

#482875
0aaaaa

#483500
1aaaaa

#484125
0aaaaa

#484750
1aaaaa

#485375
0aaaaa

#486000
1aaaaa
0aaaab
b0 aaaaf

#486625
0aaaaa

#487250
1aaaaa

#487875
0aaaaa

#488500
1aaaaa

#489125
0aaaaa

#489750
1aaaaa

#490375
0aaaaa

#491000
1aaaaa
1aaaab

#491625
0aaaaa

#492250
1aaaaa

#492875
0aaaaa

#493500
1aaaaa

#494125
0aaaaa

#494750
1aaaaa

#495375
0aaaaa

#496000
1aaaaa
0aaaab
b1 aaaaf

#496625
0aaaaa

#497250
1aaaaa

#497875
0aaaaa

#498500
1aaaaa

#499125
0aaaaa

#499750
1aaaaa

#500375
0aaaaa

#501000
1aaaaa
1aaaab

#501625
0aaaaa

#502250
1aaaaa

#502875
0aaaaa

#503500
1aaaaa

#504125
0aaaaa

#504750
1aaaaa

#505375
0aaaaa

#506000
1aaaaa
0aaaab
b0 aaaaf

#506625
0aaaaa

#507250
1aaaaa

#507875
0aaaaa

#508500
1aaaaa

#509125
0aaaaa

#509750
1aaaaa

#510375
0aaaaa

#511000
1aaaaa
1aaaab

#511625
0aaaaa

#512250
1aaaaa

#512875
0aaaaa

#513500
1aaaaa

#514125
0aaaaa

#514750
1aaaaa

#515375
0aaaaa

#516000
1aaaaa
0aaaab
b1 aaaaf

#516625
0aaaaa

#517250
1aaaaa

#517875
0aaaaa

#518500
1aaaaa

#519125
0aaaaa

#519750
1aaaaa

#520375
0aaaaa

#521000
1aaaaa
1aaaab

#521625
0aaaaa

#522250
1aaaaa

#522875
0aaaaa

#523500
1aaaaa

#524125
0aaaaa

#524750
1aaaaa

#525375
0aaaaa

#526000
1aaaaa
0aaaab

#526625
0aaaaa

#527250
1aaaaa

#527875
0aaaaa

#528500
1aaaaa

#529125
0aaaaa

#529750
1aaaaa

#530375
0aaaaa

#531000
1aaaaa
1aaaab

#531625
0aaaaa

#532250
1aaaaa

#532875
0aaaaa

#533500
1aaaaa

#534125
0aaaaa

#534750
1aaaaa

#535375
0aaaaa

#536000
1aaaaa
0aaaab
b0 aaaaf

#536625
0aaaaa

#537250
1aaaaa

#537875
0aaaaa

#538500
1aaaaa

#539125
0aaaaa

#539750
1aaaaa

#540375
0aaaaa

#541000
1aaaaa
1aaaab

#541625
0aaaaa

#542250
1aaaaa

#542875
0aaaaa

#543500
1aaaaa

#544125
0aaaaa

#544750
1aaaaa

#545375
0aaaaa

#546000
1aaaaa
0aaaab
b1 aaaaf

#546625
0aaaaa

#547250
1aaaaa

#547875
0aaaaa

#548500
1aaaaa

#549125
0aaaaa

#549750
1aaaaa

#550375
0aaaaa

#551000
1aaaaa
1aaaab

#551625
0aaaaa

#552250
1aaaaa

#552875
0aaaaa

#553500
1aaaaa

#554125
0aaaaa

#554750
1aaaaa

#555375
0aaaaa

#556000
1aaaaa
0aaaab
b0 aaaaf

#556625
0aaaaa

#557250
1aaaaa

#557875
0aaaaa

#558500
1aaaaa

#559125
0aaaaa

#559750
1aaaaa

#560375
0aaaaa

#561000
1aaaaa
1aaaab

#561625
0aaaaa

#562250
1aaaaa

#562875
0aaaaa

#563500
1aaaaa

#564125
0aaaaa

#564750
1aaaaa

#565375
0aaaaa

#566000
1aaaaa
0aaaab
b0 aaaae

#566625
0aaaaa

#567250
1aaaaa

#567875
0aaaaa

#568500
1aaaaa

#569125
0aaaaa

#569750
1aaaaa

#570375
0aaaaa

#571000
1aaaaa
1aaaab

#571625
0aaaaa

#572250
1aaaaa
b0 aaaad

#572875
0aaaaa

#573500
1aaaaa

#574125
0aaaaa

#574750
1aaaaa

#575375
0aaaaa

#576000
1aaaaa
0aaaab
b1 aaaae
b1 aaaaf

#576625
0aaaaa

#577250
1aaaaa

#577875
0aaaaa

#578500
1aaaaa

#579125
0aaaaa

#579750
1aaaaa

#580375
0aaaaa

#581000
1aaaaa
1aaaab

#581625
0aaaaa

#582250
1aaaaa

#582875
0aaaaa

#583500
1aaaaa

#584125
0aaaaa

#584750
1aaaaa
b1 aaaad

#585375
0aaaaa

#586000
1aaaaa
0aaaab

#586625
0aaaaa

#587250
1aaaaa
b100 aaaac

#587875
0aaaaa

#588500
1aaaaa

#589125
0aaaaa

#589750
1aaaaa

#590375
0aaaaa

#591000
1aaaaa
1aaaab

#591625
0aaaaa

#592250
1aaaaa

#592875
0aaaaa

#593500
1aaaaa

#594125
0aaaaa

#594750
1aaaaa

#595375
0aaaaa

#596000
1aaaaa
0aaaab
b0 aaaaf

#596625
0aaaaa

#597250
1aaaaa

#597875
0aaaaa

#598500
1aaaaa

#599125
0aaaaa

#599750
1aaaaa

#600375
0aaaaa

#601000
1aaaaa
1aaaab

#601625
0aaaaa

#602250
1aaaaa

#602875
0aaaaa

#603500
1aaaaa

#604125
0aaaaa

#604750
1aaaaa

#605375
0aaaaa

#606000
1aaaaa
0aaaab
b1 aaaaf

#606625
0aaaaa

#607250
1aaaaa

#607875
0aaaaa

#608500
1aaaaa

#609125
0aaaaa

#609750
1aaaaa

#610375
0aaaaa

#611000
1aaaaa
1aaaab

#611625
0aaaaa

#612250
1aaaaa

#612875
0aaaaa

#613500
1aaaaa

#614125
0aaaaa

#614750
1aaaaa

#615375
0aaaaa

#616000
1aaaaa
0aaaab
b0 aaaaf

#616625
0aaaaa

#617250
1aaaaa

#617875
0aaaaa

#618500
1aaaaa

#619125
0aaaaa

#619750
1aaaaa

#620375
0aaaaa

#621000
1aaaaa
1aaaab

#621625
0aaaaa

#622250
1aaaaa

#622875
0aaaaa

#623500
1aaaaa

#624125
0aaaaa

#624750
1aaaaa

#625375
0aaaaa

#626000
1aaaaa
0aaaab
b1 aaaaf

#626625
0aaaaa

#627250
1aaaaa

#627875
0aaaaa

#628500
1aaaaa

#629125
0aaaaa

#629750
1aaaaa

#630375
0aaaaa

#631000
1aaaaa
1aaaab

#631625
0aaaaa

#632250
1aaaaa

#632875
0aaaaa

#633500
1aaaaa

#634125
0aaaaa

#634750
1aaaaa

#635375
0aaaaa

#636000
1aaaaa
0aaaab
b0 aaaaf

#636625
0aaaaa

#637250
1aaaaa

#637875
0aaaaa

#638500
1aaaaa

#639125
0aaaaa

#639750
1aaaaa

#640375
0aaaaa

#641000
1aaaaa
1aaaab

#641625
0aaaaa

#642250
1aaaaa

#642875
0aaaaa

#643500
1aaaaa

#644125
0aaaaa

#644750
1aaaaa

#645375
0aaaaa

#646000
1aaaaa
0aaaab
b0 aaaae

#646625
0aaaaa

#647250
1aaaaa

#647875
0aaaaa

#648500
1aaaaa

#649125
0aaaaa

#649750
1aaaaa

#650375
0aaaaa

#651000
1aaaaa
1aaaab

#651625
0aaaaa

#652250
1aaaaa
b0 aaaad

#652875
0aaaaa

#653500
1aaaaa

#654125
0aaaaa

#654750
1aaaaa

#655375
0aaaaa

#656000
1aaaaa
0aaaab
b1 aaaae
b1 aaaaf

#656625
0aaaaa

#657250
1aaaaa

#657875
0aaaaa

#658500
1aaaaa

#659125
0aaaaa

#659750
1aaaaa

#660375
0aaaaa

#661000
1aaaaa
1aaaab

#661625
0aaaaa

#662250
1aaaaa

#662875
0aaaaa

#663500
1aaaaa

#664125
0aaaaa

#664750
1aaaaa
b1 aaaad

#665375
0aaaaa

#666000
1aaaaa
0aaaab
b0 aaaaf

#666625
0aaaaa

#667250
1aaaaa
b101 aaaac

#667875
0aaaaa

#668500
1aaaaa

#669125
0aaaaa

#669750
1aaaaa

#670375
0aaaaa

#671000
1aaaaa
1aaaab

#671625
0aaaaa

#672250
1aaaaa

#672875
0aaaaa

#673500
1aaaaa

#674125
0aaaaa

#674750
1aaaaa

#675375
0aaaaa

#676000
1aaaaa
0aaaab
b0 aaaae

#676625
0aaaaa

#677250
1aaaaa

#677875
0aaaaa

#678500
1aaaaa

#679125
0aaaaa

#679750
1aaaaa
b0 aaaad

#680375
0aaaaa

#681000
1aaaaa
1aaaab

#681625
0aaaaa

#682250
1aaaaa

#682875
0aaaaa

#683500
1aaaaa

#684125
0aaaaa

#684750
1aaaaa

#685375
0aaaaa

#686000
1aaaaa
0aaaab
b1 aaaae
b1 aaaaf

#686625
0aaaaa

#687250
1aaaaa

#687875
0aaaaa

#688500
1aaaaa

#689125
0aaaaa

#689750
1aaaaa

#690375
0aaaaa

#691000
1aaaaa
1aaaab

#691625
0aaaaa

#692250
1aaaaa
b1 aaaad

#692875
0aaaaa

#693500
1aaaaa

#694125
0aaaaa

#694750
1aaaaa
b110 aaaac

#695375
0aaaaa

#696000
1aaaaa
0aaaab
b0 aaaaf

#696625
0aaaaa

#697250
1aaaaa

#697875
0aaaaa

#698500
1aaaaa

#699125
0aaaaa

#699750
1aaaaa

#700375
0aaaaa

#701000
1aaaaa
1aaaab

#701625
0aaaaa

#702250
1aaaaa

#702875
0aaaaa

#703500
1aaaaa

#704125
0aaaaa

#704750
1aaaaa

#705375
0aaaaa

#706000
1aaaaa
0aaaab
b1 aaaaf

#706625
0aaaaa

#707250
1aaaaa

#707875
0aaaaa

#708500
1aaaaa

#709125
0aaaaa

#709750
1aaaaa

#710375
0aaaaa

#711000
1aaaaa
1aaaab

#711625
0aaaaa

#712250
1aaaaa

#712875
0aaaaa

#713500
1aaaaa

#714125
0aaaaa

#714750
1aaaaa

#715375
0aaaaa

#716000
1aaaaa
0aaaab
b0 aaaaf

#716625
0aaaaa

#717250
1aaaaa

#717875
0aaaaa

#718500
1aaaaa

#719125
0aaaaa

#719750
1aaaaa

#720375
0aaaaa

#721000
1aaaaa
1aaaab

#721625
0aaaaa

#722250
1aaaaa

#722875
0aaaaa

#723500
1aaaaa

#724125
0aaaaa

#724750
1aaaaa

#725375
0aaaaa

#726000
1aaaaa
0aaaab
b1 aaaaf

#726625
0aaaaa

#727250
1aaaaa

#727875
0aaaaa

#728500
1aaaaa

#729125
0aaaaa

#729750
1aaaaa

#730375
0aaaaa

#731000
1aaaaa
1aaaab

#731625
0aaaaa

#732250
1aaaaa

#732875
0aaaaa

#733500
1aaaaa

#734125
0aaaaa

#734750
1aaaaa

#735375
0aaaaa

#736000
1aaaaa
0aaaab

#736625
0aaaaa

#737250
1aaaaa

#737875
0aaaaa

#738500
1aaaaa

#739125
0aaaaa

#739750
1aaaaa

#740375
0aaaaa

#741000
1aaaaa
1aaaab

#741625
0aaaaa

#742250
1aaaaa

#742875
0aaaaa

#743500
1aaaaa

#744125
0aaaaa

#744750
1aaaaa

#745375
0aaaaa

#746000
1aaaaa
0aaaab
b0 aaaaf

#746625
0aaaaa

#747250
1aaaaa

#747875
0aaaaa

#748500
1aaaaa

#749125
0aaaaa

#749750
1aaaaa

#750375
0aaaaa

#751000
1aaaaa
1aaaab

#751625
0aaaaa

#752250
1aaaaa

#752875
0aaaaa

#753500
1aaaaa

#754125
0aaaaa

#754750
1aaaaa

#755375
0aaaaa

#756000
1aaaaa
0aaaab
b1 aaaaf

#756625
0aaaaa

#757250
1aaaaa

#757875
0aaaaa

#758500
1aaaaa

#759125
0aaaaa

#759750
1aaaaa

#760375
0aaaaa

#761000
1aaaaa
1aaaab

#761625
0aaaaa

#762250
1aaaaa

#762875
0aaaaa

#763500
1aaaaa

#764125
0aaaaa

#764750
1aaaaa

#765375
0aaaaa

#766000
1aaaaa
0aaaab
b0 aaaaf

#766625
0aaaaa

#767250
1aaaaa

#767875
0aaaaa

#768500
1aaaaa

#769125
0aaaaa

#769750
1aaaaa

#770375
0aaaaa

#771000
1aaaaa
1aaaab

#771625
0aaaaa

#772250
1aaaaa

#772875
0aaaaa

#773500
1aaaaa

#774125
0aaaaa

#774750
1aaaaa

#775375
0aaaaa

#776000
1aaaaa
0aaaab
b0 aaaae

#776625
0aaaaa

#777250
1aaaaa

#777875
0aaaaa

#778500
1aaaaa

#779125
0aaaaa

#779750
1aaaaa

#780375
0aaaaa

#781000
1aaaaa
1aaaab

#781625
0aaaaa

#782250
1aaaaa
b0 aaaad

#782875
0aaaaa

#783500
1aaaaa

#784125
0aaaaa

#784750
1aaaaa

#785375
0aaaaa

#786000
1aaaaa
0aaaab
b1 aaaae
b1 aaaaf

#786625
0aaaaa

#787250
1aaaaa

#787875
0aaaaa

#788500
1aaaaa

#789125
0aaaaa

#789750
1aaaaa

#790375
0aaaaa

#791000
1aaaaa
1aaaab

#791625
0aaaaa

#792250
1aaaaa

#792875
0aaaaa

#793500
1aaaaa

#794125
0aaaaa

#794750
1aaaaa
b1 aaaad

#795375
0aaaaa

#796000
1aaaaa
0aaaab

#796625
0aaaaa

#797250
1aaaaa
b111 aaaac

#797875
0aaaaa

#798500
1aaaaa

#799125
0aaaaa

#799750
1aaaaa

#800375
0aaaaa

#801000
1aaaaa
1aaaab

#801625
0aaaaa

#802250
1aaaaa

#802875
0aaaaa

#803500
1aaaaa

#804125
0aaaaa

#804750
1aaaaa

#805375
0aaaaa

#806000
1aaaaa
0aaaab
b0 aaaaf

#806625
0aaaaa

#807250
1aaaaa

#807875
0aaaaa

#808500
1aaaaa

#809125
0aaaaa

#809750
1aaaaa

#810375
0aaaaa

#811000
1aaaaa
1aaaab

#811625
0aaaaa

#812250
1aaaaa

#812875
0aaaaa

#813500
1aaaaa

#814125
0aaaaa

#814750
1aaaaa

#815375
0aaaaa

#816000
1aaaaa
0aaaab
b1 aaaaf

#816625
0aaaaa

#817250
1aaaaa

#817875
0aaaaa

#818500
1aaaaa

#819125
0aaaaa

#819750
1aaaaa

#820375
0aaaaa

#821000
1aaaaa
1aaaab

#821625
0aaaaa

#822250
1aaaaa

#822875
0aaaaa

#823500
1aaaaa

#824125
0aaaaa

#824750
1aaaaa

#825375
0aaaaa

#826000
1aaaaa
0aaaab

#826625
0aaaaa

#827250
1aaaaa

#827875
0aaaaa

#828500
1aaaaa

#829125
0aaaaa

#829750
1aaaaa

#830375
0aaaaa

#831000
1aaaaa
1aaaab

#831625
0aaaaa

#832250
1aaaaa

#832875
0aaaaa

#833500
1aaaaa

#834125
0aaaaa

#834750
1aaaaa

#835375
0aaaaa

