8051/waveform.vcd
$date
     Jun 08, 2022       21:08:24
$end

$version
 SystemC 2.3.3-Accellera --- Mar 30 2022 23:04:16
$end

$timescale
     1 ps
$end

$scope module SystemC $end
$var wire    1  aaaaa  clk_800       $end
$var wire    1  aaaab  clk       $end
$var wire    8  aaaac  port0o [7:0]  $end
$var wire    8  aaaad  port3o [7:0]  $end
$var wire    8  aaaae  port2i [7:0]  $end
$var wire    8  aaaaf  port1i [7:0]  $end
$upscope $end
$enddefinitions  $end

$comment
All initial values are dumped below at time 1e-07 sec = 100000 timescale units.
$end

$dumpvars
1aaaaa
0aaaab
b0 aaaac
b0 aaaad
b1 aaaae
b0 aaaaf
$end

#100375
0aaaaa

#101000
1aaaaa
1aaaab

#101625
0aaaaa

#102250
1aaaaa

#102875
0aaaaa

#103500
1aaaaa

#104125
0aaaaa

#104750
1aaaaa

#105375
0aaaaa

#106000
1aaaaa
0aaaab
b1 aaaaf

#106625
0aaaaa

#107250
1aaaaa

#107875
0aaaaa

#108500
1aaaaa

#109125
0aaaaa

#109750
1aaaaa

#110375
0aaaaa

#111000
1aaaaa
1aaaab

#111625
0aaaaa

#112250
1aaaaa

#112875
0aaaaa

#113500
1aaaaa

#114125
0aaaaa

#114750
1aaaaa

#115375
0aaaaa

#116000
1aaaaa
0aaaab

#116625
0aaaaa

#117250
1aaaaa

#117875
0aaaaa

#118500
1aaaaa

#119125
0aaaaa

#119750
1aaaaa

#120375
0aaaaa

#121000
1aaaaa
1aaaab

#121625
0aaaaa

#122250
1aaaaa

#122875
0aaaaa

#123500
1aaaaa

#124125
0aaaaa

#124750
1aaaaa

#125375
0aaaaa

#126000
1aaaaa
0aaaab

#126625
0aaaaa

#127250
1aaaaa

#127875
0aaaaa

#128500
1aaaaa

#129125
0aaaaa

#129750
1aaaaa

#130375
0aaaaa

#131000
1aaaaa
1aaaab

#131625
0aaaaa

#132250
1aaaaa

#132875
0aaaaa

#133500
1aaaaa

#134125
0aaaaa

#134750
1aaaaa

#135375
0aaaaa

#136000
1aaaaa
0aaaab
b0 aaaaf

#136625
0aaaaa

#137250
1aaaaa

#137875
0aaaaa

#138500
1aaaaa

#139125
0aaaaa

#139750
1aaaaa

#140375
0aaaaa

#141000
1aaaaa
1aaaab

#141625
0aaaaa

#142250
1aaaaa

#142875
0aaaaa

#143500
1aaaaa

#144125
0aaaaa

#144750
1aaaaa

#145375
0aaaaa

#146000
1aaaaa
0aaaab

#146625
0aaaaa

#147250
1aaaaa

#147875
0aaaaa

#148500
1aaaaa

#149125
0aaaaa

#149750
1aaaaa

#150375
0aaaaa

#151000
1aaaaa
1aaaab

#151625
0aaaaa

#152250
1aaaaa

#152875
0aaaaa

#153500
1aaaaa

#154125
0aaaaa

#154750
1aaaaa

#155375
0aaaaa

#156000
1aaaaa
0aaaab
b0 aaaae

#156625
0aaaaa

#157250
1aaaaa

#157875
0aaaaa

#158500
1aaaaa

#159125
0aaaaa

#159750
1aaaaa

#160375
0aaaaa

#161000
1aaaaa
1aaaab

#161625
0aaaaa

#162250
1aaaaa

#162875
0aaaaa

#163500
1aaaaa

#164125
0aaaaa

#164750
1aaaaa

#165375
0aaaaa

#166000
1aaaaa
0aaaab
b1 aaaae
b1 aaaaf

#166625
0aaaaa

#167250
1aaaaa

#167875
0aaaaa

#168500
1aaaaa

#169125
0aaaaa

#169750
1aaaaa

#170375
0aaaaa

#171000
1aaaaa
1aaaab

#171625
0aaaaa

#172250
1aaaaa

#172875
0aaaaa

#173500
1aaaaa

#174125
0aaaaa

#174750
1aaaaa

#175375
0aaaaa

#176000
1aaaaa
0aaaab
b0 aaaaf

#176625
0aaaaa

#177250
1aaaaa

#177875
0aaaaa

#178500
1aaaaa

#179125
0aaaaa

#179750
1aaaaa

#180375
0aaaaa

#181000
1aaaaa
1aaaab

#181625
0aaaaa

#182250
1aaaaa

#182875
0aaaaa

#183500
1aaaaa

#184125
0aaaaa

#184750
1aaaaa

#185375
0aaaaa

#186000
1aaaaa
0aaaab
b1 aaaaf

#186625
0aaaaa

#187250
1aaaaa

#187875
0aaaaa

#188500
1aaaaa

#189125
0aaaaa

#189750
1aaaaa

#190375
0aaaaa

#191000
1aaaaa
1aaaab

#191625
0aaaaa

#192250
1aaaaa

#192875
0aaaaa

#193500
1aaaaa

#194125
0aaaaa

#194750
1aaaaa

#195375
0aaaaa

#196000
1aaaaa
0aaaab

#196625
0aaaaa

#197250
1aaaaa

#197875
0aaaaa

#198500
1aaaaa

#199125
0aaaaa

#199750
1aaaaa

#200375
0aaaaa

#201000
1aaaaa
1aaaab

#201625
0aaaaa

#202250
1aaaaa

#202875
0aaaaa

#203500
1aaaaa

#204125
0aaaaa

#204750
1aaaaa

#205375
0aaaaa

#206000
1aaaaa
0aaaab

#206625
0aaaaa

#207250
1aaaaa

#207875
0aaaaa

#208500
1aaaaa

#209125
0aaaaa

#209750
1aaaaa

#210375
0aaaaa

#211000
1aaaaa
1aaaab

#211625
0aaaaa

#212250
1aaaaa

#212875
0aaaaa

#213500
1aaaaa

#214125
0aaaaa

#214750
1aaaaa

#215375
0aaaaa

#216000
1aaaaa
0aaaab
b0 aaaaf

#216625
0aaaaa

#217250
1aaaaa

#217875
0aaaaa

#218500
1aaaaa

#219125
0aaaaa

#219750
1aaaaa

#220375
0aaaaa

#221000
1aaaaa
1aaaab

#221625
0aaaaa

#222250
1aaaaa

#222875
0aaaaa

#223500
1aaaaa

#224125
0aaaaa

#224750
1aaaaa

#225375
0aaaaa

#226000
1aaaaa
0aaaab

#226625
0aaaaa

#227250
1aaaaa

#227875
0aaaaa

#228500
1aaaaa

#229125
0aaaaa

#229750
1aaaaa

#230375
0aaaaa

#231000
1aaaaa
1aaaab

#231625
0aaaaa

#232250
1aaaaa

#232875
0aaaaa

#233500
1aaaaa

#234125
0aaaaa

#234750
1aaaaa

#235375
0aaaaa

#236000
1aaaaa
0aaaab
b0 aaaae

#236625
0aaaaa

#237250
1aaaaa

#237875
0aaaaa

#238500
1aaaaa

#239125
0aaaaa

#239750
1aaaaa

#240375
0aaaaa

#241000
1aaaaa
1aaaab

#241625
0aaaaa

#242250
1aaaaa

#242875
0aaaaa

#243500
1aaaaa

#244125
0aaaaa

#244750
1aaaaa

#245375
0aaaaa

#246000
1aaaaa
0aaaab
b1 aaaae
b1 aaaaf

#246625
0aaaaa

#247250
1aaaaa

#247875
0aaaaa

#248500
1aaaaa

#249125
0aaaaa

#249750
1aaaaa

#250375
0aaaaa

#251000
1aaaaa
1aaaab

#251625
0aaaaa

#252250
1aaaaa

#252875
0aaaaa

#253500
1aaaaa

#254125
0aaaaa

#254750
1aaaaa

#255375
0aaaaa

#256000
1aaaaa
0aaaab
b0 aaaaf

#256625
0aaaaa

#257250
1aaaaa

#257875
0aaaaa

#258500
1aaaaa

#259125
0aaaaa

#259750
1aaaaa

#260375
0aaaaa

#261000
1aaaaa
1aaaab

#261625
0aaaaa

#262250
1aaaaa

#262875
0aaaaa

#263500
1aaaaa

#264125
0aaaaa

#264750
1aaaaa

#265375
0aaaaa

#266000
1aaaaa
0aaaab
b1 aaaaf

